1,12.50,xd,JL,2017-03-13 12:20:12
1,13.00,MP,JL,2017-03-13 12:20:12
1,14.00,AM,JL,2017-03-13 12:20:12
1,15.00,xd,JL,2017-03-13 12:20:12
2,40.00,MP,JL,2017-03-13 12:20:12
2,50.00,xd,JL,2017-04-13 12:20:12
2,60.00,MP,JL,2017-05-13 12:20:12
3,34.00,MP,AM,2017-05-13 12:20:12
3,60.00,MP,JL,2017-06-13 12:20:12